tracedata/example.vcd
$version
    FreeRTOS trace logger
$end
$timeScale 1ns $end
$scope module task $end
$var wire 1 ! (0000)tick_event $end
$var wire 1 " (0001)Main $end
$var wire 1 # (0002)IDLE $end
$var wire 1 $ (0003)task $end
$var wire 1 % (0004)task $end
$var wire 1 & (0005)task $end
$var wire 1 ' (0006)task $end
$var wire 1 ( (0007)task $end
$var wire 1 ) (0008)task $end
$var wire 1 * (0009)task $end
$var wire 1 + (0010)task $end
$upscope $end
$enddefinitions $end
$dumpvars
#8556
0"
#8815
0#
#8836
1#
#8866
0#
#8884
1"
#9092
0$
#9296
0%
#9509
0&
#9714
0'
#9857
1!
#9858
0!
#9878
0"
#9896
1#
#9922
0#
#9940
1$
#10400
0$
#10417
1%
#10857
1!
#10858
0!
#10878
0%
#10896
1&
#11337
0&
#11354
1'
#11813
0'
#11831
1"
#11857
1!
#11858
0!
#11878
0"
#11896
1#
#11922
0#
#11940
1%
#11985
0%
#12002
1&
#12462
0&
#12480
1"
#12572
0(
#12776
0)
#12861
1!
#12862
0!
#12882
0"
#12900
1#
#12925
0#
#12944
1(
#13385
0(
#13402
1)
#13863
1!
#13864
0!
#13896
0)
#13913
1"
#14067
0*
#14271
0+
#14322
0"
#14339
1#
#14365
0#
#14383
1'
#14845
0'
#14863
1&
#14888
1!
#14889
0!
#14921
0&
#14938
1(
#15379
0(
#15396
1*
#15857
1!
#15858
0!
#15886
0*
#15903
1+
#16363
0+
#16380
1#
#16406
0#
#16424
1$
#16857
1!
#16858
0!
#16891
0$
#16908
1%
#17368
0%
#17385
1&
#17846
0&
#17863
1"
#17888
1!
#17889
0!
#17921
0"
#17939
1(
#18399
0(
#18417
1#
#18443
0#
#18461
1)
#18486
0)
#18504
1+
#18857
1!
#18858
0!
#18878
0+
#18896
1$
#18929
0$
#18946
1'
#19407
0'
#19424
1%
#19857
1!
#19858
0!
#19891
0%
#19908
1"
#19953
0"
#19970
1#
#19996
0#
#20014
1)
#20455
0)
#20472
1+
#20586
0+
#20603
1$
#20857
1!
#20858
0!
#20886
0$
#20903
1*
#20928
0*
#20945
1&
#21405
0&
#21423
1%
#21474
0%
#21491
1#
#21517
0#
#21535
1)
#21857
1!
#21858
0!
#21886
0)
#21903
1+
#22364
0+
#22381
1(
#22842
0(
#22859
1$
#22884
1!
#22885
0!
#22912
0$
#22930
1*
#23392
0*
#23410
1#
#23435
0#
#23454
1"
#23500
0"
#23517
1)
#23682
0)
#23700
1%
#23857
1!
#23858
0!
#23891
0%
#23909
1$
#24141
0$
#24158
1#
#24185
0#
#24203
1'
#24663
0'
#24681
1&
#24857
1!
#24858
0!
#24901
0&
#24919
1%
#25246
0%
#25264
1#
#25291
0#
#25309
1(
#25750
0(
#25767
1"
#25812
0"
#25830
1)
#25857
1!
#25858
0!
#25879
0)
#25896
1'
#26359
0'
#26376
1&
#26686
0&
#26703
1#
#26730
0#
#26748
1(
#26857
1!
#26858
0!
#26901
0(
#26919
1)
#27377
0)
#27394
1#
#27421
0#
#27439
1+
#27857
1!
#27858
0!
#27891
0+
#27909
1*
#28367
0*
#28385
1"
#28432
0"
#28449
1&
#28857
1!
#28858
0!
#28886
0&
#28903
1(
#29260
0(
#29277
1#
#29303
0#
#29321
1$
#29782
0$
#29800
1%
#29857
1!
#29858
0!
#29896
0%
#29913
1+
#29980
0+
#29997
1*
#30457
0*
#30475
1&
#30532
0&
#30550
1(
#30857
1!
#30858
0!
#30879
0(
#30896
1#
#30923
0#
#30941
1'
#31381
0'
#31399
1)
#31859
1!
#31860
0!
#31881
0)
#31898
1"
#31945
0"
#31962
1%
#32371
0%
#32388
1&
#32849
0&
#32866
1(
#32891
1!
#32892
0!
#32929
0(
#32947
1#
#32973
0#
#32992
1'
#33453
0'
#33470
1%
#33857
1!
#33858
0!
#33891
0%
#33908
1$
#34350
0$
#34367
1+
#34827
0+
#34845
1&
#34870
1!
#34871
0!
#34898
0&
#34916
1(
#35074
0(
#35092
1#
#35119
0#
#35137
1*
#35597
0*
#35614
1"
#35659
0"
#35676
1%
#35775
0%
#35792
1$
#35857
1!
#35858
0!
#35879
0$
#35896
1)
#35922
0)
#35940
1&
#36400
0&
#36418
1(
#36857
1!
#36858
0!
#36891
0(
#36908
1#
#36935
0#
#36953
1$
#37373
0$
#37391
1)
#37854
0)
#37871
1"
#37896
1!
#37897
0!
#37935
0"
#37953
1&
#38413
0&
#38431
1(
#38477
0(
#38495
1#
#38521
0#
#38540
1'
#38857
1!
#38858
0!
#38879
0'
#38896
1+
#39359
0+
#39376
1%
#39817
0%
#39835
1"
#39860
1!
#39861
0!
#39899
0"
#39917
1#
#39943
0#
#39962
1'
#40129
0'
#40146
1%
#40608
0%
#40625
1*
#40857
1!
#40858
0!
#40886
0*
#40903
1$
#41345
0$
#41362
1&
#41823
0&
#41841
1"
#41866
1!
#41867
0!
#41895
0"
#41913
1#
#41939
0#
#41957
1)
#42419
0)
#42436
1*
#42689
0*
#42707
1$
#42857
1!
#42858
0!
#42891
0$
#42908
1'
#43370
0'
#43388
1"
#43434
0"
#43451
1#
#43478
0#
#43496
1(
#43857
1!
#43858
0!
#43891
0(
#43909
1*
#44371
0*
#44388
1$
#44725
0$
#44742
1#
#44769
0#
#44787
1+
#44857
1!
#44858
0!
#44891
0+
#44908
1&
#45368
0&
#45386
1(
#45510
0(
#45527
1#
#45554
0#
#45572
1%
#45857
1!
#45858
0!
#45896
0%
#45913
1"
#45959
0"
#45977
1+
#46390
0+
#46408
1#
#46434
0#
#46452
1)
#46857
1!
#46858
0!
#46886
0)
#46904
1&
#47365
0&
#47383
1(
#47845
0(
#47863
1%
#47888
1!
#47889
0!
#47932
0%
#47950
1#
#47976
0#
#47995
1+
#48455
0+
#48472
1)
#48553
0)
#48570
1'
#48857
1!
#48858
0!
#48891
0'
#48909
1$
#49369
0$
#49387
1"
#49433
0"
#49450
1&
#49857
1!
#49858
0!
#49886
0&
#49904
1%
#50084
0%
#50102
1#
#50128
0#
#50147
1*
#50608
0*
#50626
1+
#50857
1!
#50858
0!
#50896
0+
#50914
1'
#51112
0'
#51129
1)
#51570
0)
#51588
1&
#51667
0&
#51684
1%
#51857
1!
#51858
0!
#51886
0%
#51904
1#
#51930
0#
#51949
1(
#52409
0(
#52427
1$
#52857
1!
#52858
0!
#52886
0$
#52904
1"
#52949
0"
#52967
1+
#53221
0+
#53239
1)
#53698
0)
#53716
1*
#53857
1!
#53858
0!
#53886
0*
#53904
1%
#54217
0%
#54235
1#
#54261
0#
#54280
1'
#54742
0'
#54759
1$
#54814
0$
#54832
1)
#54857
1!
#54858
0!
#54896
0)
#54914
1*
#55259
0*
#55277
1#
#55303
0#
#55322
1&
#55762
0&
#55780
1"
#55827
0"
#55845
1$
#55870
1!
#55871
0!
#55909
0$
#55927
1)
#56368
0)
#56386
1#
#56412
0#
#56431
1&
#56857
1!
#56858
0!
#56891
0&
#56909
1(
#57369
0(
#57387
1+
#57847
0+
#57865
1%
#57891
1!
#57892
0!
#57912
0%
#57929
1$
#58389
0$
#58407
1)
#58857
1!
#58858
0!
#58885
1!
#58886
0!
#58923
0)
#58940
1#
#58966
0#
#58985
1*
#59426
0*
#59444
1"
#59490
0"
#59507
1&
#59567
0&
#59584
1'
#59857
1!
#59858
0!
#59886
0'
#59904
1$
#60366
0$
#60383
1%
#60845
0%
#60863
1#
#60888
1!
#60889
0!
#60922
0#
#60941
1*
#61399
0*
#61417
1(
#61857
1!
#61858
0!
#61886
0(
#61904
1'
#62097
0'
#62115
1+
#62556
0+
#62574
1"
#62621
0"
#62638
1#
#62664
0#
#62683
1*
#62857
1!
#62858
0!
#62896
0*
#62914
1(
#62959
0(
#62977
1'
#63418
0'
#63436
1+
#63857
1!
#63858
0!
#63891
0+
#63909
1#
#63935
0#
#63954
1)
#64418
0)
#64436
1&
#64857
1!
#64858
0!
#64879
0&
#64897
1$
#65357
0$
#65374
1*
#65685
0*
#65703
1'
#65857
1!
#65858
0!
#65886
0'
#65903
1%
#66363
0%
#66381
1"
#66426
0"
#66444
1+
#66509
0+
#66527
1#
#66553
0#
#66571
1&
#66637
0&
#66654
1(
#66857
1!
#66858
0!
#66879
0(
#66896
1'
#67207
0'
#67224
1#
#67250
0#
#67268
1(
#67553
0(
#67570
1'
#67857
1!
#67858
0!
#67901
0'
#67918
1#
#67944
0#
#67962
1$
#68423
0$
#68441
1*
#68857
1!
#68858
0!
#68886
0*
#68903
1%
#69365
0%
#69382
1"
#69428
0"
#69446
1'
#69646
0'
#69664
1#
#69689
0#
#69708
1)
#69857
1!
#69858
0!
#69901
0)
#69918
1*
#69986
0*
#70003
1#
#70029
0#
#70048
1+
#70508
0+
#70525
1&
#70857
1!
#70858
0!
#70896
0&
#70913
1(
#71373
0(
#71391
1$
#71851
0$
#71869
1)
#71894
1!
#71895
0!
#71915
0)
#71932
1#
#71958
0#
#71976
1"
#72022
0"
#72039
1*
#72480
0*
#72497
1+
#72857
1!
#72858
0!
#72891
0+
#72908
1&
#73062
0&
#73079
1)
#73415
0)
#73433
1#
#73459
0#
#73477
1*
#73857
1!
#73858
0!
#73886
0*
#73903
1%
#74363
0%
#74381
1'
#74841
0'
#74859
1+
#74884
1!
#74885
0!
#74912
0+
#74930
1#
#74955
0#
#74974
1"
#75020
0"
#75037
1*
#75122
0*
#75140
1(
#75602
0(
#75620
1+
#75747
0+
#75765
1#
#75790
0#
#75809
1*
#75857
1!
#75858
0!
#75891
0*
#75908
1#
#75934
0#
#75952
1$
#76415
0$
#76432
1%
#76857
1!
#76858
0!
#76891
0%
#76908
1*
#77346
0*
#77363
1#
#77389
0#
#77407
1'
#77857
1!
#77858
0!
#77883
1!
#77884
0!
#77926
0'
#77944
1"
#77990
0"
#78007
1%
#78069
0%
#78086
1#
#78112
0#
#78129
1&
#78591
0&
#78609
1)
#78857
1!
#78858
0!
#78878
0)
#78896
1'
#79341
0'
#79359
1#
#79385
0#
#79402
1)
#79640
0)
#79658
1'
#79857
1!
#79858
0!
#79911
0'
#79929
1#
#79955
0#
#79972
1(
#80413
0(
#80430
1+
#80857
1!
#80858
0!
#80886
0+
#80903
1*
#81344
0*
#81361
1"
#81406
0"
#81423
1&
#81857
1!
#81858
0!
#81879
0&
#81896
1)
#82357
0)
#82374
1'
#82660
0'
#82679
1#
#82705
0#
#82722
1(
#82857
1!
#82858
0!
#82896
0(
#82914
1$
#83373
0$
#83391
1+
#83429
0+
#83447
1*
#83857
1!
#83858
0!
#83879
0*
#83896
1&
#83929
0&
#83947
1#
#83973
0#
#83990
1%
#84449
0%
#84467
1"
#84511
0"
#84529
1)
#84857
1!
#84858
0!
#84886
0)
#84903
1(
#85234
0(
#85251
1+
#85711
0+
#85729
1*
#85804
0*
#85821
1&
#85857
1!
#85858
0!
#85886
0&
#85904
1#
#85930
0#
#85947
1%
#86407
0%
#86425
1)
#86561
0)
#86579
1(
#86857
1!
#86858
0!
#86896
0(
#86913
1"
#86958
0"
#86975
1&
#87424
0&
#87443
1#
#87469
0#
#87486
1)
#87857
1!
#87858
0!
#87886
0)
#87903
1'
#88344
0'
#88361
1+
#88802
0+
#88819
1%
#88857
1!
#88858
0!
#88886
0%
#88904
1(
#89111
0(
#89129
1#
#89155
0#
#89172
1$
#89633
0$
#89650
1)
#89765
0)
#89783
1'
#89813
x'
#89838
0'
#89856
1+
#89880
1!
#89881
0!
#89919
0+
#89937
1"
#89981
0"
#89999
1%
#90447
0%
#90465
1#
#90536
0#
#90553
1*
#90857
1!
#90858
0!
#90886
0*
#90903
1&
#90933
x&
#90959
0&
#90976
1$
#91437
0$
#91455
1+
#91857
1!
#91858
0!
#91891
0+
#91909
1#
#91982
0#
#92000
1)
#92460
0)
#92478
1*
#92659
0*
#92677
1"
#92723
0"
#92740
1%
#92857
1!
#92858
0!
#92879
0%
#92896
1+
#92960
0+
#92978
1#
#93005
0#
#93022
1%
#93392
0%
#93410
1+
#93857
1!
#93858
0!
#93888
1!
#93889
0!
#93941
0+
#93959
1(
#94420
0(
#94437
1$
#94857
1!
#94858
0!
#94879
0$
#94896
1)
#95356
0)
#95373
1"
#95418
0"
#95436
1+
#95857
1!
#95858
0!
#95886
0+
#95903
1#
#95930
0#
#95948
1$
#96014
0$
#96032
1)
#96062
x)
#96087
0)
#96105
1+
#96174
0+
#96191
1#
#96857
1!
#96858
0!
#96891
0#
#96909
1*
#97350
0*
#97368
1"
#97415
0"
#97432
1#
#97459
0#
#97477
1*
#97506
x*
#97532
0*
#97549
1#
#97857
1!
#97858
0!
#97896
0#
#97914
1%
#98375
0%
#98392
1(
#98422
x(
#98447
0(
#98465
1+
#98494
x+
#98519
0+
#98537
1#
#98857
1!
#98858
0!
#98891
0#
#98910
1$
#98939
x$
#98965
0$
#98982
1"
#99027
0"
#99045
1#
#99857
1!
#99858
0!
#100857
1!
#100858
0!
#100891
0#
#100909
1%
#100938
x%
#100964
0%
#100981
1"
