tracedata/example.vcd
$version
    FreeRTOS trace logger
$end
$timeScale 1us $end
$scope module task $end
$var wire 1 ! (0000)tick_event $end
$var wire 1 " (0001)Main $end
$var wire 1 # (0002)IDLE $end
$var wire 1 $ (0003)task $end
$var wire 1 % (0004)task $end
$var wire 1 & (0005)task $end
$var wire 1 ' (0006)task $end
$var wire 1 ( (0007)task $end
$var wire 1 ) (0008)task $end
$var wire 1 * (0009)task $end
$var wire 1 + (0010)task $end
$upscope $end
$enddefinitions $end
$dumpvars
#12656
0"
#12832
0#
#12852
1#
#12883
0#
#12900
1"
#13044
0$
#13189
0%
#13334
0&
#13479
0'
#13624
0(
#13769
0)
#13874
1!
#13875
0!
#13892
#13908
0"
#13925
1#
#13953
0#
#13970
1$
#14430
0$
#14447
1%
#14874
1!
#14875
0!
#14892
#14908
0%
#14925
1&
#15385
0&
#15402
1'
#15862
0'
#15878
1(
#15904
1!
#15905
0!
#15922
#15938
0(
#15955
1)
#16416
0)
#16433
1"
#16499
0*
#16644
0+
#16689
0"
#16705
1#
#16733
0#
#16750
1%
#16791
0%
#16808
1(
#16874
1!
#16875
0!
#16900
#16916
0(
#16932
1*
#17376
0*
#17392
1+
#17855
0+
#17872
1#
#17897
1!
#17898
0!
#17928
#17944
0#
#17961
1%
#18405
0%
#18421
1'
#18874
1!
#18875
0!
#18889
#18914
1!
#18915
0!
#18945
0'
#18962
1(
#19382
0(
#19399
1*
#19861
0*
#19878
1&
#19903
1!
#19904
0!
#19934
#19950
0&
#19967
1"
#20011
0"
#20028
1#
#20056
0#
#20073
1$
#20536
0$
#20553
1%
#20874
1!
#20875
0!
#20905
#20921
0%
#20937
1'
#21401
0'
#21417
1(
#21874
1!
#21875
0!
#21889
#21912
1!
#21913
0!
#21949
0(
#21965
1&
#22409
0&
#22425
1#
#22453
0#
#22471
1)
#22874
1!
#22875
0!
#22892
#22908
0)
#22925
1+
#23387
0+
#23404
1*
#23848
0*
#23865
1"
#23890
1!
#23891
0!
#23915
#23932
0"
#23949
1%
#24095
0%
#24112
1&
#24574
0&
#24591
1#
#24619
0#
#24637
1)
#24721
0)
#24737
1*
#24874
1!
#24875
0!
#24899
#24916
0*
#24933
1'
#25394
0'
#25411
1"
#25455
0"
#25472
1%
#25874
1!
#25875
0!
#25910
#25926
0%
#25943
1#
#25970
0#
#25988
1$
#26450
0$
#26466
1*
#26816
0*
#26833
1(
#26874
1!
#26875
0!
#26899
#26916
0(
#26933
1)
#27394
0)
#27411
1'
#27875
1!
#27876
0!
#27905
#27922
0'
#27938
1%
#28024
0%
#28040
1#
#28068
0#
#28086
1"
#28130
0"
#28147
1+
#28611
0+
#28628
1*
#28874
1!
#28875
0!
#28910
#28926
0*
#28943
1(
#29373
0(
#29389
1#
#29417
0#
#29435
1&
#29874
1!
#29875
0!
#29899
#29916
0&
#29933
1)
#30376
0)
#30392
1%
#30855
0%
#30871
1*
#30897
1!
#30898
0!
#30937
#30953
0*
#30970
1(
#31430
0(
#31447
1#
#31475
0#
#31493
1"
#31536
0"
#31553
1&
#31600
0&
#31616
1)
#31874
1!
#31875
0!
#31892
#31909
0)
#31926
1$
#32387
0$
#32404
1'
#32430
0'
#32447
1+
#32874
1!
#32875
0!
#32900
#32916
0+
#32932
1%
#33376
0%
#33393
1*
#33634
0*
#33651
1#
#33678
0#
#33696
1)
#33874
1!
#33875
0!
#33900
#33916
0)
#33932
1'
#34395
0'
#34411
1"
#34457
0"
#34474
1+
#34535
0+
#34551
1%
#34874
1!
#34875
0!
#34892
#34909
0%
#34925
1#
#34953
0#
#34971
1(
#35435
0(
#35451
1)
#35531
0)
#35547
1%
#35715
0%
#35731
1#
#35874
1!
#35875
0!
#35925
#35941
0#
#35959
1&
#36421
0&
#36437
1$
#36874
1!
#36875
0!
#36905
#36921
0$
#36938
1*
#37399
0*
#37416
1'
#37859
0'
#37875
1"
#37901
1!
#37902
0!
#37919
#37936
0"
#37952
1+
#38396
0+
#38413
1#
#38438
0#
#38455
1(
#38874
1!
#38875
0!
#38905
#38921
0(
#38937
1%
#39398
0%
#39415
1$
#39465
0$
#39482
1'
#39874
1!
#39875
0!
#39899
#39916
0'
#39933
1"
#39976
0"
#39993
1+
#40455
0+
#40472
1#
#40500
0#
#40517
1)
#40874
1!
#40875
0!
#40893
#40909
0)
#40926
1&
#41387
0&
#41403
1(
#41472
0(
#41489
1*
#41874
1!
#41875
0!
#41915
#41932
0*
#41948
1'
#42043
0'
#42060
1#
#42088
0#
#42106
1)
#42236
0)
#42253
1$
#42696
0$
#42712
1"
#42757
0"
#42774
1&
#42874
1!
#42875
0!
#42905
#42921
0&
#42938
1(
#43381
0(
#43397
1*
#43500
0*
#43516
1#
#43544
0#
#43562
1$
#43874
1!
#43875
0!
#43910
#43926
0$
#43943
1%
#44403
0%
#44420
1+
#44864
0+
#44880
1&
#44906
1!
#44907
0!
#44931
#44948
0&
#44965
1(
#45425
0(
#45442
1#
#45470
0#
#45487
1)
#45874
1!
#45875
0!
#45893
#45909
0)
#45926
1"
#45970
0"
#45986
1*
#46449
0*
#46465
1$
#46641
0$
#46658
1+
#46874
1!
#46875
0!
#46899
#46916
0+
#46933
1'
#47396
0'
#47412
1&
#47781
0&
#47798
1#
#47826
0#
#47844
1)
#47874
1!
#47875
0!
#47910
#47927
0)
#47943
1%
#48405
0%
#48421
1+
#48692
0+
#48709
1&
#48874
1!
#48875
0!
#48900
#48916
0&
#48933
1#
#48961
0#
#48979
1(
#49439
0(
#49456
1"
#49501
0"
#49517
1*
#49874
1!
#49875
0!
#49892
#49909
0*
#49925
1)
#50023
0)
#50040
1$
#50503
0$
#50519
1&
#50844
0&
#50861
1#
#50887
1!
#50888
0!
#50923
#50940
0#
#50957
1*
#51089
0*
#51106
1'
#51569
0'
#51586
1(
#51874
1!
#51875
0!
#51905
#51921
0(
#51938
1"
#51984
0"
#52000
1#
#52028
0#
#52045
1%
#52509
0%
#52526
1$
#52874
1!
#52875
0!
#52900
#52916
0$
#52933
1(
#53135
0(
#53152
1#
#53180
0#
#53198
1+
#53661
0+
#53678
1$
#53820
0$
#53836
1#
#53874
1!
#53875
0!
#53910
#53927
0#
#53944
1)
#54408
0)
#54425
1&
#54874
1!
#54875
0!
#54889
#54921
1!
#54922
0!
#54952
0&
#54969
1"
#55016
0"
#55032
1#
#55061
0#
#55077
1'
#55539
0'
#55557
1#
#55874
1!
#55875
0!
#55915
#55932
0#
#55949
1*
#56412
0*
#56429
1+
#56874
1!
#56875
0!
#56910
#56926
0+
#56943
1$
#57387
0$
#57404
1'
#57865
0'
#57882
1#
#57908
1!
#57909
0!
#57934
#57950
0#
#57968
1%
#58430
0%
#58446
1&
#58874
1!
#58875
0!
#58900
#58916
0&
#58933
1"
#58978
0"
#58995
1+
#59039
0+
#59056
1$
#59519
0$
#59536
1(
#59874
1!
#59875
0!
#59905
#59921
0(
#59938
1#
#59966
0#
#59983
1)
#60446
0)
#60462
1&
#60525
0&
#60542
1'
#60874
1!
#60875
0!
#60915
#60932
0'
#60948
1%
#61409
0%
#61425
1(
#61575
0(
#61592
1#
#61620
0#
#61638
1*
#61874
1!
#61875
0!
#61900
#61916
0*
#61933
1"
#61978
0"
#61995
1+
#62458
0+
#62474
1$
#62874
1!
#62875
0!
#62910
#62926
0$
#62943
1'
#63098
0'
#63115
1#
#63143
0#
#63161
1%
#63623
0%
#63640
1*
#63874
1!
#63875
0!
#63900
#63916
0*
#63933
1)
#64395
0)
#64412
1&
#64856
0&
#64873
1(
#64898
1!
#64899
0!
#64924
#64941
0(
#64958
1$
#65044
0$
#65061
1#
#65089
0#
#65107
1"
#65151
0"
#65168
1*
#65213
0*
#65230
1&
#65693
0&
#65710
1'
#65874
1!
#65875
0!
#65900
#65916
0'
#65933
1(
#66376
0(
#66392
1#
#66420
0#
#66437
1$
#66874
1!
#66875
0!
#66910
#66926
0$
#66943
1'
#67264
0'
#67280
1(
#67741
0(
#67757
1#
#67785
0#
#67802
1+
#67874
1!
#67875
0!
#67905
#67921
0+
#67938
1%
#68399
0%
#68416
1"
#68461
0"
#68478
1$
#68529
0$
#68546
1#
#68573
0#
#68591
1'
#68874
1!
#68875
0!
#68905
#68921
0'
#68937
1(
#69400
0(
#69417
1+
#69832
0+
#69849
1#
#69874
1!
#69875
0!
#69905
#69921
0#
#69938
1)
#70401
0)
#70417
1&
#70878
1!
#70879
0!
#70897
#70913
0&
#70930
1'
#71134
0'
#71151
1*
#71615
0*
#71632
1"
#71678
0"
#71694
1#
#71874
1!
#71875
0!
#71910
#71926
0#
#71943
1%
#72407
0%
#72424
1+
#72874
1!
#72875
0!
#72889
#72918
1!
#72919
0!
#72960
0+
#72977
1&
#73002
0&
#73019
1#
#73047
0#
#73063
1$
#73526
0$
#73543
1'
#73874
1!
#73875
0!
#73910
#73926
0'
#73943
1"
#73987
0"
#74005
1&
#74467
0&
#74484
1#
#74511
0#
#74528
1(
#74874
1!
#74875
0!
#74910
#74926
0(
#74943
1)
#75404
0)
#75421
1+
#75874
1!
#75875
0!
#75889
#75916
1!
#75917
0!
#75948
0+
#75964
1'
#76121
0'
#76138
1#
#76166
0#
#76183
1*
#76643
0*
#76660
1%
#76874
1!
#76875
0!
#76899
#76916
0%
#76933
1$
#77395
0$
#77412
1"
#77457
0"
#77474
1(
#77617
0(
#77634
1#
#77662
0#
#77679
1*
#77874
1!
#77875
0!
#77915
#77931
0*
#77948
1%
#78220
0%
#78238
1#
#78265
0#
#78282
1&
#78725
0&
#78742
1)
#78874
1!
#78875
0!
#78899
#78916
0)
#78933
1+
#79396
0+
#79413
1'
#79856
0'
#79873
1*
#79898
1!
#79899
0!
#79924
#79940
0*
#79957
1#
#79985
0#
#80002
1&
#80463
0&
#80480
1"
#80525
0"
#80541
1)
#80874
1!
#80875
0!
#80905
#80921
0)
#80937
1'
#81399
0'
#81416
1(
#81878
1!
#81879
0!
#81913
#81930
0(
#81947
1*
#82237
0*
#82255
1#
#82283
0#
#82299
1$
#82762
0$
#82778
1%
#82874
1!
#82875
0!
#82899
#82916
0%
#82933
1+
#83394
0+
#83411
1"
#83455
0"
#83471
1(
#83497
0(
#83514
1)
#83543
0)
#83560
1#
#83588
0#
#83604
1&
#83874
1!
#83875
0!
#83899
#83916
0&
#83933
1%
#84324
0%
#84341
1(
#84804
0(
#84820
1)
#84874
1!
#84875
0!
#84905
#84921
0)
#84938
1#
#84966
0#
#84982
1'
#85445
0'
#85462
1&
#85680
0&
#85696
1*
#85874
1!
#85875
0!
#85905
#85921
0*
#85937
1"
#85982
0"
#85999
1)
#86432
0)
#86449
1#
#86477
0#
#86493
1+
#86874
1!
#86875
0!
#86910
#86926
0+
#86943
1%
#87405
0%
#87421
1*
#87730
0*
#87747
1#
#87775
0#
#87792
1$
#87874
1!
#87875
0!
#87905
#87921
0$
#87938
1&
#88381
0&
#88397
1)
#88859
0)
#88876
1+
#88901
1!
#88902
0!
#88932
#88948
0+
#88965
1#
#88993
0#
#89009
1"
#89053
0"
#89070
1*
#89532
0*
#89549
1$
#89874
1!
#89875
0!
#89899
#89916
0$
#89933
1&
#90394
0&
#90411
1(
#90874
1!
#90875
0!
#90899
#90916
0(
#90933
1'
#91395
0'
#91412
1+
#91519
0+
#91536
1#
#91564
0#
#91581
1)
#91874
1!
#91875
0!
#91905
#91921
0)
#91938
1"
#91982
0"
#91999
1$
#92087
0$
#92104
1#
#92132
0#
#92148
1%
#92611
0%
#92628
1*
#92874
1!
#92875
0!
#92892
#92909
0*
#92926
1)
#93121
0)
#93138
1$
#93601
0$
#93618
1#
#93646
0#
#93662
1*
#93874
1!
#93875
0!
#93915
#93931
0*
#93948
1#
#93976
0#
#93993
1&
#94455
0&
#94471
1(
#94497
0(
#94514
1'
#94543
x'
#94564
0'
#94580
1"
#94626
0"
#94643
1*
#94699
0*
#94716
1#
#94774
0#
#94791
1(
#94874
1!
#94875
0!
#94910
#94926
0(
#94943
1#
#94971
0#
#94988
1%
#95017
x%
#95038
0%
#95054
1$
#95498
0$
#95514
1&
#95544
x&
#95565
0&
#95581
1(
#95874
1!
#95875
0!
#95905
#95921
0(
#95938
1#
#96027
0#
#96044
1$
#96487
0$
#96503
1+
#96874
1!
#96875
0!
#96904
#96920
0+
#96937
1"
#96981
0"
#96997
1(
#97134
0(
#97151
1#
#97179
0#
#97196
1$
#97224
x$
#97246
0$
#97262
1)
#97723
0)
#97740
1*
#97874
1!
#97875
0!
#97892
#97909
0*
#97925
1+
#98042
0+
#98059
1#
#98118
0#
#98135
1*
#98488
0*
#98505
1#
#98874
1!
#98875
0!
#98905
#98921
0#
#98938
1"
#98983
0"
#99000
1)
#99460
0)
#99477
1#
#99874
1!
#99875
0!
#99905
#99921
0#
#99938
1*
#100400
0*
#100417
1)
#100874
1!
#100875
0!
#100889
#100911
1!
#100912
0!
#100953
0)
#100969
1#
#100995
0#
#101012
1+
#101473
0+
#101490
1"
#101533
0"
#101550
1*
#101874
1!
#101875
0!
#101899
#101916
0*
#101933
1#
#101961
0#
#101978
1(
#102440
0(
#102457
1*
#102602
0*
#102620
1#
#102648
0#
#102665
1*
#102693
x*
#102715
0*
#102732
1#
#102874
1!
#102875
0!
#102899
#102916
0#
#102933
1"
#102978
0"
#102995
1#
#103874
1!
#103875
0!
#103905
#103921
0#
#103938
1)
#104401
0)
#104418
1+
#104874
1!
#104875
0!
#104889
#104911
1!
#104912
0!
#104943
0+
#104960
1#
#104988
0#
#105004
1"
#105049
0"
#105066
1#
#105874
1!
#105875
0!
#105900
#105916
0#
#105933
1)
#105962
x)
#105984
0)
#106000
1#
#106874
1!
#106875
0!
#106905
#106921
0#
#106938
1(
#106967
x(
#106989
0(
#107005
1"
#107049
0"
#107066
1#
#107874
1!
#107875
0!
#107892
#108874
1!
#108875
0!
#108904
#108920
0#
#108938
1+
#108969
x+
#108989
0+
#109006
1"
