tracedata/example.vcd
$version
    FreeRTOS trace logger
$end
$timeScale 1us $end
$scope module task $end
$var wire 1 ! (0000)tick_event $end
$var wire 1 " (0001)Main $end
$var wire 1 # (0002)IDLE $end
$var wire 1 $ (0003)task $end
$var wire 1 % (0004)task $end
$var wire 1 & (0005)task $end
$var wire 1 ' (0006)task $end
$var wire 1 ( (0007)task $end
$var wire 1 ) (0008)task $end
$var wire 1 * (0009)task $end
$var wire 1 + (0010)task $end
$upscope $end
$enddefinitions $end
$dumpvars
#12656
0"
#12833
0#
#12853
1#
#12885
0#
#12902
1"
#13046
0$
#13191
0%
#13336
0&
#13482
0'
#13627
0(
#13772
0)
#13875
1!
#13876
0!
#13895
0"
#13912
1#
#13940
0#
#13958
1$
#14418
0$
#14435
1%
#14875
1!
#14876
0!
#14895
0%
#14912
1&
#15372
0&
#15389
1'
#15850
0'
#15867
1(
#15892
1!
#15893
0!
#15912
0(
#15929
1)
#16391
0)
#16408
1"
#16476
0*
#16621
0+
#16666
0"
#16684
1#
#16712
0#
#16729
1%
#16758
0%
#16775
1(
#16875
1!
#16876
0!
#16903
0(
#16920
1*
#17363
0*
#17380
1+
#17842
0+
#17860
1#
#17885
1!
#17886
0!
#17918
0#
#17936
1%
#18379
0%
#18396
1'
#18857
0'
#18874
1(
#18899
1!
#18900
0!
#18927
0(
#18944
1*
#19405
0*
#19422
1&
#19875
1!
#19876
0!
#19902
1!
#19903
0!
#19939
0&
#19956
1"
#20001
0"
#20018
1#
#20045
0#
#20063
1%
#20526
0%
#20543
1$
#20875
1!
#20876
0!
#20907
0$
#20925
1'
#21386
0'
#21403
1*
#21866
0*
#21883
1(
#21909
1!
#21910
0!
#21941
0(
#21958
1#
#21986
0#
#22004
1)
#22447
0)
#22464
1+
#22875
1!
#22876
0!
#22895
0+
#22912
1$
#23068
0$
#23085
1&
#23530
0&
#23547
1"
#23591
0"
#23609
1(
#23875
1!
#23876
0!
#23902
0(
#23920
1#
#23948
0#
#23965
1)
#24409
0)
#24426
1+
#24503
0+
#24520
1&
#24875
1!
#24876
0!
#24908
0&
#24925
1'
#25385
0'
#25403
1(
#25547
0(
#25565
1#
#25592
0#
#25610
1)
#25875
1!
#25876
0!
#25908
0)
#25925
1%
#26387
0%
#26404
1"
#26449
0"
#26466
1&
#26598
0&
#26615
1#
#26643
0#
#26660
1*
#26875
1!
#26876
0!
#26903
0*
#26920
1(
#27383
0(
#27400
1)
#27624
0)
#27642
1#
#27669
0#
#27687
1'
#27875
1!
#27876
0!
#27913
0'
#27930
1*
#28202
0*
#28220
1#
#28248
0#
#28265
1$
#28729
0$
#28746
1"
#28791
0"
#28808
1&
#28875
1!
#28876
0!
#28913
0&
#28930
1'
#29211
0'
#29228
1#
#29256
0#
#29274
1+
#29717
0+
#29734
1(
#29875
1!
#29876
0!
#29902
0(
#29920
1*
#30382
0*
#30399
1&
#30820
0&
#30837
1'
#30875
1!
#30876
0!
#30918
0'
#30935
1#
#30963
0#
#30980
1+
#31441
0+
#31459
1"
#31502
0"
#31520
1(
#31866
0(
#31883
1%
#31908
1!
#31909
0!
#31929
0%
#31946
1)
#32389
0)
#32406
1$
#32868
0$
#32885
1*
#32911
1!
#32912
0!
#32943
0*
#32960
1'
#33409
0'
#33426
1#
#33454
0#
#33471
1%
#33875
1!
#33876
0!
#33895
0%
#33912
1)
#34375
0)
#34392
1&
#34855
0&
#34872
1"
#34897
1!
#34898
0!
#34935
0"
#34953
1*
#35415
0*
#35432
1#
#35459
0#
#35477
1%
#35562
0%
#35579
1(
#35875
1!
#35876
0!
#35913
0(
#35930
1$
#36392
0$
#36409
1'
#36871
0'
#36888
1"
#36913
1!
#36914
0!
#36941
0"
#36958
1#
#36986
0#
#37003
1+
#37447
0+
#37464
1)
#37875
1!
#37876
0!
#37895
0)
#37912
1&
#38355
0&
#38373
1(
#38564
0(
#38581
1%
#38875
1!
#38876
0!
#38913
0%
#38930
1"
#38973
0"
#38990
1#
#39018
0#
#39035
1+
#39497
0+
#39514
1)
#39591
0)
#39608
1&
#39875
1!
#39876
0!
#39896
0&
#39913
1*
#40373
0*
#40391
1$
#40852
0$
#40870
1'
#40895
1!
#40896
0!
#40933
0'
#40950
1%
#41143
0%
#41160
1#
#41188
0#
#41206
1&
#41426
0&
#41444
1"
#41489
0"
#41507
1*
#41875
1!
#41876
0!
#41913
0*
#41930
1$
#42373
0$
#42391
1'
#42834
0'
#42851
1#
#42876
1!
#42877
0!
#42909
0#
#42927
1(
#43388
0(
#43406
1+
#43867
0+
#43884
1)
#43910
1!
#43911
0!
#43943
0)
#43960
1*
#44061
0*
#44079
1$
#44539
0$
#44557
1'
#44875
1!
#44876
0!
#44895
0'
#44913
1&
#45374
0&
#45391
1"
#45437
0"
#45454
1#
#45481
0#
#45499
1%
#45875
1!
#45876
0!
#45903
0%
#45920
1(
#46382
0(
#46399
1)
#46862
0)
#46879
1*
#46904
1!
#46905
0!
#46942
0*
#46959
1'
#47110
0'
#47127
1#
#47155
0#
#47172
1+
#47634
0+
#47651
1%
#47764
0%
#47781
1$
#47875
1!
#47876
0!
#47895
0$
#47913
1&
#48374
0&
#48392
1"
#48437
0"
#48454
1*
#48875
1!
#48876
0!
#48903
0*
#48920
1'
#49383
0'
#49400
1#
#49428
0#
#49445
1$
#49840
0$
#49857
1(
#49882
1!
#49883
0!
#49920
0(
#49937
1*
#50004
0*
#50021
1#
#50049
0#
#50066
1)
#50530
0)
#50547
1&
#50875
1!
#50876
0!
#50908
0&
#50925
1"
#50969
0"
#50987
1(
#51450
0(
#51467
1#
#51495
0#
#51512
1+
#51875
1!
#51876
0!
#51903
0+
#51920
1$
#52383
0$
#52400
1&
#52562
0&
#52580
1#
#52608
0#
#52625
1%
#52875
1!
#52876
0!
#52908
0%
#52925
1+
#53050
0+
#53067
1#
#53096
0#
#53113
1'
#53576
0'
#53594
1"
#53639
0"
#53656
1%
#53875
1!
#53876
0!
#53903
0%
#53920
1#
#53948
0#
#53965
1*
#54430
0*
#54447
1%
#54495
0%
#54512
1#
#54875
1!
#54876
0!
#54913
0#
#54931
1)
#55393
0)
#55410
1(
#55874
0(
#55891
1"
#55917
1!
#55918
0!
#55955
0"
#55972
1#
#55998
0#
#56016
1+
#56479
0+
#56496
1'
#56875
1!
#56876
0!
#56913
0'
#56930
1)
#57374
0)
#57391
1"
#57436
0"
#57453
1#
#57481
0#
#57499
1$
#57875
1!
#57876
0!
#57903
0$
#57920
1&
#58383
0&
#58400
1*
#58862
0*
#58879
1'
#58904
1!
#58905
0!
#58937
0'
#58954
1)
#59416
0)
#59434
1#
#59462
0#
#59479
1+
#59875
1!
#59876
0!
#59908
0+
#59925
1$
#60037
0$
#60054
1%
#60517
0%
#60534
1"
#60578
0"
#60595
1'
#60704
0'
#60721
1#
#60749
0#
#60766
1(
#60875
1!
#60876
0!
#60913
0(
#60930
1*
#61393
0*
#61410
1+
#61502
0+
#61520
1#
#61547
0#
#61565
1&
#61875
1!
#61876
0!
#61903
0&
#61920
1)
#62382
0)
#62399
1'
#62863
0'
#62880
1(
#62906
1!
#62907
0!
#62944
0(
#62961
1#
#62989
0#
#63007
1"
#63051
0"
#63069
1&
#63247
0&
#63265
1$
#63728
0$
#63745
1%
#63875
1!
#63876
0!
#63903
0%
#63920
1*
#64363
0*
#64380
1(
#64758
0(
#64776
1#
#64804
0#
#64821
1)
#64875
1!
#64876
0!
#64908
0)
#64925
1%
#65284
0%
#65301
1*
#65745
0*
#65762
1#
#65790
0#
#65807
1"
#65852
0"
#65869
1(
#65895
1!
#65896
0!
#65927
0(
#65944
1)
#66377
0)
#66394
1*
#66855
0*
#66872
1#
#66898
1!
#66899
0!
#66935
0#
#66953
1+
#67415
0+
#67432
1'
#67875
1!
#67876
0!
#67907
0'
#67924
1(
#68386
0(
#68403
1"
#68447
0"
#68464
1)
#68875
1!
#68876
0!
#68903
0)
#68920
1*
#69381
0*
#69398
1#
#69426
0#
#69443
1&
#69875
1!
#69876
0!
#69903
0&
#69920
1$
#70382
0$
#70399
1'
#70444
0'
#70461
1%
#70875
1!
#70876
0!
#70902
0%
#70919
1)
#70995
0)
#71012
1#
#71040
0#
#71058
1"
#71103
0"
#71120
1&
#71176
0&
#71193
1+
#71657
0+
#71674
1%
#71750
0%
#71767
1#
#71875
1!
#71876
0!
#71902
0#
#71920
1*
#72384
0*
#72401
1#
#72875
1!
#72876
0!
#72918
0#
#72935
1(
#73399
0(
#73416
1)
#73879
1!
#73880
0!
#73917
0)
#73934
1"
#73979
0"
#73996
1&
#74459
0&
#74476
1#
#74503
0#
#74520
1$
#74875
1!
#74876
0!
#74913
0$
#74930
1%
#75392
0%
#75409
1*
#75871
0*
#75889
1#
#75914
1!
#75915
0!
#75941
0#
#75959
1'
#76421
0'
#76438
1+
#76875
1!
#76876
0!
#76918
0+
#76935
1(
#77396
0(
#77413
1$
#77543
0$
#77561
1"
#77606
0"
#77623
1#
#77650
0#
#77667
1)
#77693
0)
#77710
1&
#77875
1!
#77876
0!
#77902
0&
#77919
1*
#78381
0*
#78399
1'
#78842
0'
#78859
1+
#78885
1!
#78886
0!
#78912
0+
#78930
1#
#78958
0#
#78975
1)
#79437
0)
#79454
1%
#79875
1!
#79876
0!
#79903
0%
#79920
1&
#80223
0&
#80240
1'
#80702
0'
#80719
1"
#80764
0"
#80781
1+
#80833
0+
#80850
1#
#80876
1!
#80877
0!
#80908
0#
#80925
1$
#81387
0$
#81404
1%
#81471
0%
#81488
1&
#81875
1!
#81876
0!
#81913
0&
#81930
1(
#82392
0(
#82410
1*
#82872
0*
#82889
1#
#82914
1!
#82915
0!
#82947
0#
#82964
1)
#83407
0)
#83425
1"
#83469
0"
#83486
1$
#83875
1!
#83876
0!
#83902
0$
#83920
1&
#84020
0&
#84037
1'
#84500
0'
#84517
1+
#84875
1!
#84876
0!
#84908
0+
#84925
1#
#84952
0#
#84969
1)
#85431
0)
#85448
1%
#85875
1!
#85876
0!
#85902
0%
#85920
1$
#86017
0$
#86035
1*
#86064
x*
#86085
0*
#86102
1"
#86147
0"
#86164
1+
#86292
0+
#86309
1#
#86367
0#
#86384
1&
#86848
0&
#86865
1%
#86890
1!
#86891
0!
#86923
0%
#86940
1#
#86969
0#
#86986
1(
#87447
0(
#87464
1+
#87875
1!
#87876
0!
#87913
0+
#87930
1%
#87971
0%
#87989
1#
#88017
0#
#88034
1$
#88495
0$
#88512
1"
#88557
0"
#88574
1(
#88875
1!
#88876
0!
#88907
0(
#88925
1+
#89001
0+
#89019
1%
#89481
0%
#89499
1#
#89527
0#
#89544
1'
#89875
1!
#89876
0!
#89908
0'
#89925
1)
#90387
0)
#90404
1(
#90590
0(
#90608
1#
#90636
0#
#90654
1$
#90875
1!
#90876
0!
#90903
0$
#90920
1"
#90965
0"
#90982
1'
#91139
0'
#91157
1#
#91185
0#
#91203
1&
#91646
0&
#91663
1$
#91875
1!
#91876
0!
#91902
0$
#91920
1#
#91949
0#
#91966
1&
#92428
0&
#92445
1+
#92875
1!
#92876
0!
#92913
0+
#92930
1$
#93009
0$
#93027
1#
#93055
0#
#93073
1%
#93534
0%
#93552
1(
#93875
1!
#93876
0!
#93902
0(
#93920
1"
#93965
0"
#93982
1+
#94039
0+
#94056
1#
#94084
0#
#94102
1)
#94131
x)
#94152
0)
#94169
1(
#94335
0(
#94353
1#
#94875
1!
#94876
0!
#94913
0#
#94930
1&
#94960
x&
#94981
0&
#94998
1%
#95441
0%
#95459
1+
#95875
1!
#95876
0!
#95907
0+
#95925
1#
#95982
0#
#96000
1%
#96443
0%
#96460
1'
#96875
1!
#96876
0!
#96907
0'
#96925
1"
#96968
0"
#96985
1+
#97055
0+
#97072
1#
#97100
0#
#97117
1%
#97578
0%
#97596
1$
#97875
1!
#97876
0!
#97895
0$
#97912
1(
#98374
0(
#98391
1'
#98462
0'
#98480
1#
#98508
0#
#98525
1$
#98733
0$
#98750
1#
#98875
1!
#98876
0!
#98913
0#
#98931
1"
#98975
0"
#98992
1%
#99454
0%
#99471
1$
#99875
1!
#99876
0!
#99907
0$
#99925
1#
#99953
0#
#99971
1'
#100000
x'
#100021
0'
#100038
1%
#100067
x%
#100089
0%
#100106
1$
#100189
0$
#100206
1#
#100875
1!
#100876
0!
#100908
0#
#100926
1(
#101387
0(
#101404
1"
#101448
0"
#101465
1#
#101875
1!
#101876
0!
#101903
0#
#101921
1+
#102383
0+
#102400
1#
#102875
1!
#102876
0!
#102902
0#
#102920
1"
#102965
0"
#102982
1#
#103875
1!
#103876
0!
#103907
0#
#103925
1$
#103955
x$
#103976
0$
#103993
1(
#104437
0(
#104454
1#
#104513
0#
#104531
1(
#104875
1!
#104876
0!
#104903
0(
#104920
1#
#104948
0#
#104965
1"
#105009
0"
#105027
1(
#105170
0(
#105188
1#
#105875
1!
#105876
0!
#106875
1!
#106876
0!
#106912
0#
#106930
1+
#107391
0+
#107408
1"
#107451
0"
#107468
1(
#107498
x(
#107519
0(
#107536
1#
#107875
1!
#107876
0!
#108875
1!
#108876
0!
#108903
0#
#108920
1"
#108964
0"
#108981
1#
#109875
1!
#109876
0!
#110875
1!
#110876
0!
#110903
0#
#110920
1"
#110965
0"
#110982
1#
#111875
1!
#111876
0!
#111903
0#
#111920
1+
#111950
x+
#111971
0+
#111988
1#
#112875
1!
#112876
0!
#112902
0#
#112920
1"
