tracedata/example.vcd
$version
    FreeRTOS trace logger
$end
$timeScale 1us $end
$scope module task $end
$var wire 1 ! (0000)tick_event $end
$var wire 1 " (0001)Main $end
$var wire 1 # (0002)IDLE $end
$var wire 1 $ (0003)task $end
$var wire 1 % (0004)task $end
$var wire 1 & (0005)task $end
$var wire 1 ' (0006)task $end
$var wire 1 ( (0007)task $end
$var wire 1 ) (0008)task $end
$var wire 1 * (0009)task $end
$var wire 1 + (0010)task $end
$upscope $end
$enddefinitions $end
$dumpvars
#8628
0"
#8902
0#
#8921
1#
#8953
0#
#8970
1"
#9172
0$
#9384
0%
#9587
0&
#9799
0'
#9944
1!
#9945
0!
#9964
0"
#9981
1#
#10008
0#
#10026
1$
#10487
0$
#10504
1%
#10943
1!
#10944
0!
#10963
0%
#10980
1&
#11441
0&
#11458
1'
#11918
0'
#11935
1"
#11960
1!
#11961
0!
#11980
0"
#11997
1#
#12025
0#
#12043
1%
#12091
0%
#12108
1"
#12192
0(
#12403
0)
#12606
0*
#12818
0+
#12863
0"
#12880
1#
#12908
0#
#12926
1(
#12951
1!
#12952
0!
#12979
0(
#12996
1)
#13439
0)
#13456
1*
#13899
0*
#13916
1+
#13943
1!
#13944
0!
#13976
0+
#13993
1#
#14021
0#
#14038
1'
#14500
0'
#14517
1(
#14943
1!
#14944
0!
#14971
0(
#14988
1)
#15431
0)
#15448
1*
#15909
0*
#15926
1&
#15951
1!
#15952
0!
#15971
0&
#15988
1"
#16033
0"
#16050
1+
#16510
0+
#16527
1#
#16555
0#
#16573
1$
#16943
1!
#16944
0!
#16981
0$
#16998
1(
#17058
0(
#17076
1)
#17538
0)
#17555
1&
#17943
1!
#17944
0!
#17976
0&
#17993
1#
#18021
0#
#18039
1%
#18500
0%
#18517
1*
#18943
1!
#18944
0!
#18964
0*
#18981
1+
#19443
0+
#19460
1$
#19558
0$
#19575
1'
#19943
1!
#19944
0!
#19971
0'
#19988
1"
#20032
0"
#20050
1&
#20149
0&
#20166
1#
#20194
0#
#20212
1*
#20253
0*
#20271
1$
#20714
0$
#20731
1(
#20943
1!
#20944
0!
#20971
0(
#20988
1'
#21107
0'
#21125
1#
#21153
0#
#21170
1*
#21632
0*
#21649
1$
#21943
1!
#21944
0!
#21976
0$
#21993
1%
#22454
0%
#22471
1(
#22747
0(
#22764
1#
#22792
0#
#22810
1)
#22943
1!
#22944
0!
#22976
0)
#22993
1"
#23038
0"
#23055
1$
#23247
0$
#23265
1#
#23293
0#
#23310
1*
#23773
0*
#23791
1%
#23943
1!
#23944
0!
#23971
0%
#23988
1)
#24344
0)
#24361
1#
#24389
0#
#24406
1+
#24869
0+
#24887
1%
#24943
1!
#24944
0!
#24991
0%
#25009
1#
#25037
0#
#25054
1&
#25517
0&
#25534
1"
#25578
0"
#25596
1$
#25943
1!
#25944
0!
#25971
0$
#25988
1*
#26431
0*
#26449
1+
#26892
0+
#26909
1%
#26943
1!
#26944
0!
#26976
0%
#26993
1#
#27021
0#
#27039
1'
#27500
0'
#27518
1$
#27657
0$
#27675
1*
#27943
1!
#27944
0!
#27981
0*
#27999
1+
#28459
0+
#28477
1(
#28937
0(
#28955
1"
#28980
1!
#28981
0!
#29001
0"
#29018
1%
#29294
0%
#29311
1#
#29339
0#
#29356
1)
#29818
0)
#29836
1&
#29943
1!
#29944
0!
#29971
0&
#29988
1'
#30450
0'
#30467
1*
#30685
0*
#30702
1"
#30748
0"
#30765
1%
#30944
1!
#30945
0!
#30964
0%
#30981
1#
#31008
0#
#31026
1$
#31491
0$
#31508
1&
#31890
0&
#31907
1%
#31943
1!
#31944
0!
#31991
0%
#32009
1#
#32037
0#
#32054
1(
#32516
0(
#32533
1)
#32943
1!
#32944
0!
#32976
0)
#32993
1'
#33455
0'
#33472
1*
#33934
0*
#33951
1"
#33976
1!
#33977
0!
#34004
0"
#34021
1%
#34299
0%
#34317
1#
#34345
0#
#34362
1+
#34806
0+
#34823
1$
#34943
1!
#34944
0!
#34971
0$
#34988
1)
#35065
0)
#35082
1(
#35544
0(
#35562
1"
#35606
0"
#35623
1%
#35943
1!
#35944
0!
#35976
0%
#35993
1#
#36022
0#
#36039
1+
#36502
0+
#36519
1&
#36943
1!
#36944
0!
#36971
0&
#36988
1$
#37354
0$
#37371
1'
#37833
0'
#37850
1*
#37943
1!
#37944
0!
#37981
0*
#37999
1%
#38165
0%
#38182
1#
#38210
0#
#38227
1"
#38272
0"
#38290
1&
#38352
0&
#38369
1(
#38813
0(
#38830
1$
#38943
1!
#38944
0!
#38976
0$
#38993
1'
#39437
0'
#39454
1*
#39848
0*
#39865
1#
#39893
0#
#39910
1(
#39944
1!
#39945
0!
#39981
0(
#39998
1)
#40460
0)
#40477
1+
#40920
0+
#40937
1$
#40963
1!
#40964
0!
#40990
0$
#41007
1'
#41468
0'
#41485
1#
#41512
0#
#41530
1"
#41575
0"
#41592
1&
#41944
1!
#41945
0!
#41964
0&
#41981
1*
#42443
0*
#42460
1(
#42915
0(
#42932
1+
#42957
1!
#42958
0!
#42990
0+
#43007
1%
#43469
0%
#43486
1$
#43843
0$
#43860
1#
#43887
0#
#43905
1&
#43943
1!
#43944
0!
#43976
0&
#43993
1)
#44455
0)
#44472
1"
#44517
0"
#44534
1+
#44943
1!
#44944
0!
#44971
0+
#44988
1$
#45451
0$
#45468
1#
#45495
0#
#45513
1'
#45943
1!
#45944
0!
#45971
0'
#45988
1*
#46449
0*
#46467
1&
#46591
0&
#46608
1(
#46943
1!
#46944
0!
#46971
0(
#46988
1+
#47065
0+
#47083
1#
#47110
0#
#47128
1"
#47174
0"
#47191
1'
#47250
0'
#47268
1%
#47732
0%
#47750
1(
#47904
0(
#47921
1#
#47946
1!
#47947
0!
#47979
0#
#47997
1)
#48462
0)
#48479
1*
#48944
1!
#48945
0!
#48976
0*
#48993
1#
#49021
0#
#49039
1+
#49502
0+
#49519
1"
#49565
0"
#49583
1#
#49944
1!
#49945
0!
#49976
0#
#49994
1$
#50459
0$
#50476
1&
#50941
0&
#50958
1#
#50983
1!
#50984
0!
#51021
0#
#51039
1'
#51503
0'
#51520
1(
#51943
1!
#51944
0!
#51976
0(
#51993
1"
#52039
0"
#52057
1#
#52085
0#
#52102
1%
#52565
0%
#52582
1+
#52944
1!
#52945
0!
#52986
0+
#53003
1(
#53068
0(
#53085
1#
#53113
0#
#53130
1)
#53593
0)
#53610
1*
#53636
0*
#53653
1$
#53943
1!
#53944
0!
#53976
0$
#53993
1%
#54437
0%
#54454
1+
#54580
0+
#54597
1#
#54625
0#
#54642
1*
#54943
1!
#54944
0!
#54976
0*
#54993
1'
#55455
0'
#55472
1"
#55516
0"
#55533
1$
#55730
0$
#55748
1%
#55943
1!
#55944
0!
#55964
0%
#55981
1#
#56009
0#
#56026
1&
#56490
0&
#56507
1)
#56943
1!
#56944
0!
#56986
0)
#57004
1*
#57190
0*
#57207
1%
#57498
0%
#57515
1#
#57543
0#
#57560
1+
#57943
1!
#57944
0!
#57976
0+
#57993
1'
#58455
0'
#58472
1"
#58518
0"
#58535
1$
#58943
1!
#58944
0!
#58971
0$
#58988
1)
#59040
0)
#59058
1#
#59085
0#
#59103
1(
#59566
0(
#59583
1%
#59943
1!
#59944
0!
#59981
0%
#59998
1+
#60103
0+
#60120
1&
#60582
0&
#60599
1$
#60680
0$
#60697
1#
#60725
0#
#60742
1*
#60943
1!
#60944
0!
#60971
0*
#60988
1'
#61432
0'
#61449
1"
#61493
0"
#61510
1%
#61636
0%
#61654
1#
#61682
0#
#61699
1(
#61943
1!
#61944
0!
#61971
0(
#61988
1*
#62277
0*
#62294
1'
#62737
0'
#62754
1#
#62782
0#
#62800
1%
#62943
1!
#62944
0!
#62971
0%
#62988
1(
#63232
0(
#63249
1'
#63711
0'
#63728
1#
#63755
0#
#63773
1"
#63821
0"
#63838
1%
#63943
1!
#63944
0!
#63986
0%
#64004
1#
#64031
0#
#64049
1)
#64512
0)
#64530
1+
#64944
1!
#64945
0!
#64981
0+
#64998
1(
#65460
0(
#65477
1'
#65940
0'
#65957
1%
#65982
1!
#65983
0!
#66010
0%
#66027
1#
#66055
0#
#66072
1&
#66533
0&
#66550
1$
#66943
1!
#66944
0!
#66963
0$
#66980
1"
#67025
0"
#67042
1+
#67117
0+
#67134
1*
#67596
0*
#67613
1%
#67878
0%
#67895
1#
#67923
0#
#67940
1$
#67966
1!
#67967
0!
#67993
0$
#68010
1#
#68038
0#
#68056
1)
#68520
0)
#68537
1$
#68634
0$
#68651
1#
#68944
1!
#68945
0!
#68986
0#
#69004
1&
#69467
0&
#69484
1"
#69530
0"
#69547
1*
#69944
1!
#69945
0!
#69976
0*
#69993
1%
#70456
0%
#70473
1#
#70500
0#
#70518
1(
#70943
1!
#70944
0!
#70986
0(
#71003
1'
#71465
0'
#71482
1*
#71572
0*
#71589
1#
#71617
0#
#71634
1+
#71944
1!
#71945
0!
#71976
0+
#71993
1$
#72454
0$
#72471
1&
#72932
0&
#72949
1"
#72975
1!
#72976
0!
#72995
0"
#73012
1(
#73073
0(
#73090
1#
#73118
0#
#73136
1)
#73599
0)
#73616
1%
#73943
1!
#73944
0!
#73981
0%
#73998
1+
#74177
0+
#74194
1"
#74238
0"
#74255
1#
#74283
0#
#74301
1*
#74764
0*
#74781
1&
#74943
1!
#74944
0!
#74976
0&
#74993
1(
#75436
0(
#75453
1%
#75614
0%
#75631
1#
#75659
0#
#75677
1'
#75944
1!
#75945
0!
#75971
0'
#75988
1$
#76431
0$
#76448
1&
#76774
0&
#76791
1(
#76943
1!
#76944
0!
#76981
0(
#76998
1#
#77026
0#
#77043
1"
#77088
0"
#77105
1'
#77326
0'
#77343
1$
#77804
0$
#77821
1)
#77944
1!
#77945
0!
#77976
0)
#77993
1+
#78455
0+
#78472
1*
#78935
0*
#78952
1(
#78977
1!
#78978
0!
#79010
0(
#79027
1#
#79055
0#
#79072
1%
#79534
0%
#79551
1$
#79944
1!
#79945
0!
#79971
0$
#79988
1)
#80334
0)
#80351
1&
#80813
0&
#80830
1"
#80875
0"
#80892
1(
#80944
1!
#80945
0!
#80971
0(
#80988
1#
#81016
0#
#81033
1'
#81496
0'
#81514
1$
#81609
0$
#81626
1)
#81944
1!
#81945
0!
#81981
0)
#81998
1+
#82459
0+
#82476
1(
#82783
0(
#82800
1#
#82828
0#
#82846
1%
#82943
1!
#82944
0!
#82976
0%
#82993
1&
#83455
0&
#83472
1"
#83517
0"
#83534
1)
#83703
0)
#83720
1#
#83747
0#
#83765
1*
#83943
1!
#83944
0!
#83976
0*
#83993
1(
#84436
0(
#84454
1%
#84844
0%
#84861
1#
#84889
0#
#84906
1+
#84943
1!
#84944
0!
#84976
0+
#84993
1)
#85455
0)
#85472
1*
#85783
0*
#85800
1(
#85943
1!
#85944
0!
#85976
0(
#85993
1#
#86021
0#
#86039
1$
#86501
0$
#86518
1"
#86562
0"
#86579
1+
#86943
1!
#86944
0!
#86964
0+
#86981
1'
#87010
x'
#87031
0'
#87048
1%
#87511
0%
#87529
1(
#87874
0(
#87891
1#
#87943
1!
#87944
0!
#87975
1!
#87976
0!
#88017
0#
#88035
1+
#88128
0+
#88145
1&
#88607
0&
#88625
1)
#88943
1!
#88944
0!
#88971
0)
#88988
1"
#89033
0"
#89050
1#
#89078
0#
#89096
1+
#89559
0+
#89576
1*
#89943
1!
#89944
0!
#89976
0*
#89993
1)
#90162
0)
#90179
1#
#90207
0#
#90225
1$
#90686
0$
#90703
1%
#90943
1!
#90944
0!
#90981
0%
#90998
1*
#91118
0*
#91136
1#
#91163
0#
#91181
1&
#91625
0&
#91642
1"
#91687
0"
#91705
1$
#91943
1!
#91944
0!
#91976
0$
#91993
1%
#92222
0%
#92239
1#
#92267
0#
#92284
1&
#92746
0&
#92764
1(
#92943
1!
#92944
0!
#92976
0(
#92993
1)
#93454
0)
#93471
1$
#93719
0$
#93736
1%
#93943
1!
#93944
0!
#93971
0%
#93988
1#
#94016
0#
#94034
1+
#94495
0+
#94512
1"
#94557
0"
#94574
1(
#94881
0(
#94898
1*
#94927
x*
#94948
1!
#94949
0!
#94980
0*
#94998
1%
#95277
0%
#95295
1#
#95362
0#
#95379
1)
#95842
0)
#95859
1(
#95943
1!
#95944
0!
#95986
0(
#96004
1#
#96033
0#
#96050
1$
#96079
x$
#96100
0$
#96117
1+
#96578
0+
#96596
1"
#96640
0"
#96657
1%
#96686
x%
#96707
0%
#96724
1(
#96944
1!
#96945
0!
#96971
0(
#96989
1#
#97096
0#
#97114
1&
#97576
0&
#97593
1(
#97783
0(
#97801
1#
#97830
0#
#97847
1(
#97944
1!
#97945
0!
#97971
0(
#97989
1#
#98016
0#
#98034
1"
#98078
0"
#98096
1(
#98486
0(
#98504
1#
#98943
1!
#98944
0!
#98976
0#
#98994
1)
#99023
x)
#99044
0)
#99061
1+
#99091
x+
#99112
0+
#99129
1#
#99943
1!
#99944
0!
#99976
0#
#99994
1"
#100038
0"
#100055
1(
#100084
x(
#100105
0(
#100122
1#
#100944
1!
#100945
0!
#101943
1!
#101944
0!
#101975
0#
#101993
1&
#102454
0&
#102471
1"
#102514
0"
#102532
1#
#102944
1!
#102945
0!
#103943
1!
#103944
0!
#103971
0#
#103989
1"
#104032
0"
#104049
1#
#104943
1!
#104944
0!
#105943
1!
#105944
0!
#105971
0#
#105989
1"
#106033
0"
#106050
1#
#106943
1!
#106944
0!
#106971
0#
#106989
1&
#107019
x&
#107040
0&
#107057
1#
#107943
1!
#107944
0!
#107970
0#
#107988
1"
