tracedata/example.vcd
$version
    FreeRTOS trace logger
$end
$timeScale 1us $end
$scope module task $end
$var wire 1 ! (0000)tick_event $end
$var wire 1 " (0001)Main $end
$var wire 1 # (0002)IDLE $end
$var wire 1 $ (0003)task $end
$var wire 1 % (0004)task $end
$var wire 1 & (0005)task $end
$var wire 1 ' (0006)task $end
$var wire 1 ( (0007)task $end
$var wire 1 ) (0008)task $end
$var wire 1 * (0009)task $end
$var wire 1 + (0010)task $end
$upscope $end
$enddefinitions $end
$dumpvars
#12663
0"
#12832
0#
#12851
1#
#12882
0#
#12899
1"
#13048
0$
#13203
0%
#13357
0&
#13511
0'
#13665
0(
#13819
0)
#13873
1!
#13874
0!
#13889
#13922
1!
#13923
0!
#13947
0"
#13963
1#
#13989
0#
#14006
1$
#14466
0$
#14484
1%
#14873
1!
#14874
0!
#14893
#14910
0%
#14927
1&
#15387
0&
#15404
1'
#15863
0'
#15880
1(
#15904
1!
#15905
0!
#15924
#15942
0(
#15958
1)
#16420
0)
#16437
1"
#16547
0*
#16701
0+
#16750
0"
#16766
1#
#16792
0#
#16809
1%
#16873
1!
#16874
0!
#16900
#16918
0%
#16935
1(
#17377
0(
#17394
1*
#17836
0*
#17852
1+
#17877
1!
#17878
0!
#17910
#17927
0+
#17944
1#
#17969
0#
#17987
1'
#18448
0'
#18464
1%
#18502
0%
#18519
1(
#18873
1!
#18874
0!
#18900
#18918
0(
#18935
1*
#19395
0*
#19412
1&
#19872
0&
#19889
1"
#19913
1!
#19914
0!
#19940
#19958
0"
#19974
1+
#20436
0+
#20453
1#
#20478
0#
#20496
1%
#20873
1!
#20874
0!
#20906
#20923
0%
#20940
1$
#21401
0$
#21418
1(
#21548
0(
#21565
1&
#21873
1!
#21874
0!
#21900
#21918
0&
#21935
1"
#21979
0"
#21996
1#
#22021
0#
#22038
1)
#22501
0)
#22518
1*
#22873
1!
#22874
0!
#22900
#22918
0*
#22935
1%
#23023
0%
#23040
1'
#23502
0'
#23519
1&
#23678
0&
#23695
1#
#23720
0#
#23737
1+
#23873
1!
#23874
0!
#23906
#23923
0+
#23940
1*
#24051
0*
#24068
1%
#24529
0%
#24546
1&
#24873
1!
#24874
0!
#24893
#24910
0&
#24927
1#
#24952
0#
#24970
1(
#25431
0(
#25447
1"
#25492
0"
#25509
1+
#25859
0+
#25875
1*
#25900
1!
#25901
0!
#25932
#25950
0*
#25967
1&
#26127
0&
#26144
1#
#26169
0#
#26186
1$
#26649
0$
#26666
1+
#26873
1!
#26874
0!
#26911
#26928
0+
#26946
1*
#27407
0*
#27423
1#
#27449
0#
#27466
1)
#27873
1!
#27874
0!
#27906
#27923
0)
#27940
1(
#28401
0(
#28419
1"
#28463
0"
#28479
1+
#28757
0+
#28775
1#
#28800
0#
#28817
1'
#28873
1!
#28874
0!
#28911
#28928
0'
#28945
1$
#29407
0$
#29424
1)
#29485
0)
#29501
1#
#29527
0#
#29544
1%
#29873
1!
#29874
0!
#29901
#29918
0%
#29935
1*
#30378
0*
#30395
1+
#30855
0+
#30872
1'
#30896
1!
#30897
0!
#30929
#30946
0'
#30963
1)
#31424
0)
#31440
1#
#31466
0#
#31483
1"
#31528
0"
#31545
1%
#31702
0%
#31719
1*
#31873
1!
#31874
0!
#31906
#31923
0*
#31940
1&
#32401
0&
#32419
1+
#32861
0+
#32877
1'
#32902
1!
#32903
0!
#32929
#32947
0'
#32964
1#
#32989
0#
#33007
1(
#33468
0(
#33485
1$
#33873
1!
#33874
0!
#33900
#33918
0$
#33935
1*
#34267
0*
#34284
1+
#34746
0+
#34763
1"
#34808
0"
#34825
1'
#34873
1!
#34874
0!
#34893
#34911
0'
#34927
1#
#34953
0#
#34970
1)
#35434
0)
#35451
1$
#35551
0$
#35568
1'
#35873
1!
#35874
0!
#35927
#35944
0'
#35961
1#
#35987
0#
#36004
1%
#36465
0%
#36482
1&
#36873
1!
#36874
0!
#36901
#36918
0&
#36935
1(
#37397
0(
#37413
1*
#37875
1!
#37876
0!
#37902
#37919
0*
#37936
1+
#38379
0+
#38396
1"
#38440
0"
#38457
1'
#38564
0'
#38581
1#
#38607
0#
#38624
1)
#38873
1!
#38874
0!
#38901
#38918
0)
#38935
1%
#39397
0%
#39414
1&
#39509
0&
#39526
1+
#39873
1!
#39874
0!
#39911
#39929
0+
#39946
1'
#40407
0'
#40424
1#
#40450
0#
#40467
1$
#40873
1!
#40874
0!
#40893
#40910
0$
#40928
1)
#41164
0)
#41180
1(
#41642
0(
#41658
1*
#41683
0*
#41701
1"
#41746
0"
#41763
1+
#41873
1!
#41874
0!
#41911
#41929
0+
#41946
1#
#41972
0#
#41989
1$
#42070
0$
#42087
1*
#42548
0*
#42565
1&
#42873
1!
#42874
0!
#42911
#42929
0&
#42946
1)
#43388
0)
#43405
1(
#43847
0(
#43864
1+
#43888
1!
#43889
0!
#43915
#43933
0+
#43950
1#
#43975
0#
#43992
1%
#44453
0%
#44470
1'
#44873
1!
#44874
0!
#44905
#44923
0'
#44940
1"
#44983
0"
#45000
1&
#45178
0&
#45195
1)
#45637
0)
#45653
1(
#45873
1!
#45874
0!
#45893
#45911
0(
#45928
1*
#46389
0*
#46405
1+
#46458
0+
#46476
1#
#46501
0#
#46518
1$
#46873
1!
#46874
0!
#46901
#46918
0$
#46935
1%
#47397
0%
#47414
1'
#47498
0'
#47515
1)
#47873
1!
#47874
0!
#47906
#47923
0)
#47940
1(
#48187
0(
#48204
1#
#48230
0#
#48247
1"
#48292
0"
#48308
1$
#48441
0$
#48457
1&
#48873
1!
#48874
0!
#48901
#48918
0&
#48935
1+
#49398
0+
#49414
1)
#49543
0)
#49560
1(
#49873
1!
#49874
0!
#49906
#49924
0(
#49941
1#
#49966
0#
#49983
1*
#50446
0*
#50463
1&
#50533
0&
#50550
1%
#50873
1!
#50874
0!
#50906
#50923
0%
#50940
1"
#50985
0"
#51002
1(
#51175
0(
#51192
1#
#51217
0#
#51234
1'
#51698
0'
#51715
1)
#51873
1!
#51874
0!
#51906
#51924
0)
#51941
1%
#52105
0%
#52122
1#
#52148
0#
#52165
1$
#52629
0$
#52646
1&
#52873
1!
#52874
0!
#52901
#52918
0&
#52935
1)
#53265
0)
#53282
1#
#53308
0#
#53325
1"
#53370
0"
#53387
1&
#53648
0&
#53664
1#
#53873
1!
#53874
0!
#53906
#53924
0#
#53941
1+
#54405
0+
#54422
1*
#54873
1!
#54874
0!
#54890
#54920
1!
#54921
0!
#54957
0*
#54974
1#
#54999
0#
#55016
1(
#55479
0(
#55496
1"
#55542
0"
#55560
1#
#55873
1!
#55874
0!
#55911
#55929
0#
#55947
1'
#56409
0'
#56426
1%
#56873
1!
#56874
0!
#56890
#56922
1!
#56923
0!
#56970
0%
#56987
1&
#57449
0&
#57466
1#
#57492
0#
#57509
1$
#57873
1!
#57874
0!
#57906
#57924
0$
#57941
1+
#58383
0+
#58399
1"
#58444
0"
#58461
1'
#58873
1!
#58874
0!
#58906
#58924
0'
#58941
1#
#58967
0#
#58984
1)
#59445
0)
#59461
1(
#59873
1!
#59874
0!
#59901
#59918
0(
#59935
1$
#60057
0$
#60074
1+
#60536
0+
#60552
1*
#60873
1!
#60874
0!
#60901
#60918
0*
#60935
1&
#61397
0&
#61414
1'
#61488
0'
#61506
1#
#61532
0#
#61548
1"
#61593
0"
#61610
1(
#61685
0(
#61702
1%
#61873
1!
#61874
0!
#61916
#61934
0%
#61951
1*
#62120
0*
#62138
1#
#62164
0#
#62180
1)
#62643
0)
#62660
1$
#62873
1!
#62874
0!
#62901
#62919
0$
#62935
1+
#63397
0+
#63414
1(
#63877
1!
#63878
0!
#63915
#63933
0(
#63949
1%
#64268
0%
#64286
1#
#64311
0#
#64328
1"
#64372
0"
#64389
1&
#64852
0&
#64869
1'
#64894
1!
#64895
0!
#64921
#64939
0'
#64956
1*
#65399
0*
#65415
1$
#65687
0$
#65705
1#
#65730
0#
#65747
1+
#65873
1!
#65874
0!
#65906
#65923
0+
#65940
1'
#66402
0'
#66419
1*
#66861
0*
#66878
1#
#66902
1!
#66903
0!
#66935
#66952
0#
#66969
1"
#67013
0"
#67030
1$
#67490
0$
#67507
1+
#67865
0+
#67882
1*
#67906
1!
#67907
0!
#67938
#67956
0*
#67973
1)
#68436
0)
#68452
1(
#68477
0(
#68494
1#
#68519
0#
#68536
1$
#68873
1!
#68874
0!
#68911
#68928
0$
#68945
1+
#69406
0+
#69423
1*
#69873
1!
#69874
0!
#69889
#69917
1!
#69918
0!
#69948
0*
#69966
1(
#70426
0(
#70443
1#
#70468
0#
#70485
1%
#70873
1!
#70874
0!
#70893
#70910
0%
#70927
1&
#71389
0&
#71406
1"
#71450
0"
#71467
1'
#71873
1!
#71874
0!
#71900
#71918
0'
#71935
1$
#72083
0$
#72101
1#
#72126
0#
#72143
1%
#72242
0%
#72258
1)
#72722
0)
#72739
1'
#72821
0'
#72838
1#
#72873
1!
#72874
0!
#72906
#72923
0#
#72941
1(
#73404
0(
#73421
1"
#73468
0"
#73485
1#
#73873
1!
#73874
0!
#73916
#73934
0#
#73951
1+
#74414
0+
#74431
1*
#74873
1!
#74874
0!
#74916
#74934
0*
#74950
1$
#75412
0$
#75429
1%
#75873
1!
#75874
0!
#75889
#75922
1!
#75923
0!
#75959
0%
#75976
1#
#76000
0#
#76018
1&
#76479
0&
#76495
1'
#76873
1!
#76874
0!
#76893
#76910
0'
#76927
1(
#77389
0(
#77405
1"
#77451
0"
#77467
1)
#77873
1!
#77874
0!
#77900
#77918
0)
#77935
1+
#78397
0+
#78414
1*
#78462
0*
#78478
1#
#78504
0#
#78521
1'
#78631
0'
#78648
1%
#78873
1!
#78874
0!
#78921
#78939
0%
#78956
1)
#79035
0)
#79053
1#
#79078
0#
#79095
1$
#79537
0$
#79554
1&
#79873
1!
#79874
0!
#79893
#79910
0&
#79927
1(
#80389
0(
#80405
1"
#80450
0"
#80467
1+
#80873
1!
#80874
0!
#80900
#80918
0+
#80935
1%
#81179
0%
#81196
1#
#81221
0#
#81239
1$
#81701
0$
#81717
1&
#81873
1!
#81874
0!
#81889
#81918
1!
#81919
0!
#81961
0&
#81978
1'
#82438
0'
#82455
1+
#82535
0+
#82552
1%
#82873
1!
#82874
0!
#82906
#82923
0%
#82940
1#
#82965
0#
#82982
1*
#83444
0*
#83460
1)
#83873
1!
#83874
0!
#83906
#83923
0)
#83940
1"
#83983
0"
#84001
1(
#84462
0(
#84479
1'
#84873
1!
#84874
0!
#84900
#84918
0'
#84935
1%
#85080
0%
#85096
1#
#85122
0#
#85139
1$
#85600
0$
#85616
1&
#85873
1!
#85874
0!
#85900
#85918
0&
#85935
1)
#86008
0)
#86026
1+
#86487
0+
#86504
1'
#86596
0'
#86613
1%
#86873
1!
#86874
0!
#86906
#86923
0%
#86940
1#
#86965
0#
#86982
1"
#87026
0"
#87043
1&
#87275
0&
#87292
1(
#87756
0(
#87773
1$
#87873
1!
#87874
0!
#87911
#87928
0$
#87945
1%
#88171
0%
#88187
1#
#88213
0#
#88230
1*
#88673
0*
#88690
1'
#88873
1!
#88874
0!
#88906
#88923
0'
#88940
1&
#89401
0&
#89418
1$
#89804
0$
#89821
1#
#89846
0#
#89863
1*
#89888
1!
#89889
0!
#89915
#89933
0*
#89949
1"
#89995
0"
#90012
1%
#90475
0%
#90491
1'
#90796
0'
#90813
1#
#90838
0#
#90855
1+
#90880
1!
#90881
0!
#90912
#90930
0+
#90947
1*
#91410
0*
#91427
1#
#91452
0#
#91469
1)
#91873
1!
#91874
0!
#91911
#91928
0)
#91946
1&
#92407
0&
#92424
1+
#92866
0+
#92883
1#
#92907
1!
#92908
0!
#92927
#92944
0#
#92962
1(
#93423
0(
#93440
1$
#93873
1!
#93874
0!
#93911
#93928
0$
#93945
1"
#93989
0"
#94006
1)
#94088
0)
#94105
1+
#94134
x+
#94159
0+
#94176
1#
#94237
0#
#94255
1%
#94716
0%
#94732
1'
#94873
1!
#94874
0!
#94893
#94911
0'
#94927
1*
#95389
0*
#95406
1$
#95461
0$
#95478
1#
#95503
0#
#95520
1'
#95846
0'
#95864
1#
#95888
1!
#95889
0!
#95931
#95948
0#
#95966
1'
#96408
0'
#96426
1(
#96454
x(
#96479
0(
#96496
1"
#96540
0"
#96557
1%
#96873
1!
#96874
0!
#96901
#96918
0%
#96935
1*
#96964
x*
#96989
0*
#97006
1#
#97103
0#
#97120
1'
#97582
0'
#97599
1&
#97873
1!
#97874
0!
#97911
#97928
0&
#97945
1%
#98114
0%
#98131
1#
#98157
0#
#98174
1)
#98635
0)
#98652
1$
#98873
1!
#98874
0!
#98893
#98910
0$
#98928
1"
#98972
0"
#98988
1&
#99201
0&
#99218
1#
#99243
0#
#99260
1$
#99525
0$
#99541
1#
#99873
1!
#99874
0!
#99906
#99924
0#
#99941
1%
#100403
0%
#100419
1$
#100873
1!
#100874
0!
#100889
#100915
1!
#100916
0!
#100963
0$
#100980
1#
#101006
0#
#101023
1)
#101485
0)
#101501
1"
#101545
0"
#101562
1&
#101873
1!
#101874
0!
#101901
#101918
0&
#101935
1%
#101964
x%
#101989
0%
#102007
1#
#102067
0#
#102083
1'
#102545
0'
#102562
1&
#102718
0&
#102735
1#
#102761
0#
#102777
1&
#102806
x&
#102831
0&
#102848
1#
#102873
1!
#102874
0!
#102900
#102918
0#
#102936
1"
#102980
0"
#102996
1#
#103873
1!
#103874
0!
#103906
#103924
0#
#103941
1$
#103973
x$
#103998
0$
#104015
1)
#104475
0)
#104492
1#
#104873
1!
#104874
0!
#104901
#104918
0#
#104936
1"
#104980
0"
#104997
1#
#105873
1!
#105874
0!
#105901
#105918
0#
#105936
1)
#105965
x)
#105989
0)
#106006
1#
#106873
1!
#106874
0!
#106905
#106923
0#
#106941
1'
#107401
0'
#107417
1"
#107461
0"
#107477
1#
#107873
1!
#107874
0!
#107893
#108873
1!
#108874
0!
#108901
#108918
0#
#108936
1"
#108979
0"
#108996
1#
#109873
1!
#109874
0!
#109893
#110873
1!
#110874
0!
#110901
#110918
0#
#110936
1"
#110980
0"
#110997
1#
#111873
1!
#111874
0!
#111901
#111918
0#
#111936
1'
#111965
x'
#111990
0'
#112007
1#
#112873
1!
#112874
0!
#112900
#112918
0#
#112935
1"
